<?xml version="1.0" standalone="no"?>
<!DOCTYPE svg PUBLIC "-//W3C//DTD SVG 1.1//EN" "http://www.w3.org/Graphics/SVG/1.1/DTD/svg11.dtd" >
<svg xmlns="http://www.w3.org/2000/svg">
<metadata>Generated by IcoMoon</metadata>
<defs>
<font id="icomoon" horiz-adv-x="1024">
<font-face units-per-em="1024" ascent="960" descent="-64" />
<missing-glyph horiz-adv-x="1024" />
<glyph unicode="&#x20;" horiz-adv-x="512" d="" />
<glyph unicode="&#xe900;" glyph-name="delivery" horiz-adv-x="1325" d="M454.275 246.212c-13.888 0-25.265-11.378-25.265-25.265s11.378-25.265 25.265-25.265 25.265 11.378 25.265 25.265-11.378 25.265-25.265 25.265zM1236.162 448l-202.458 201.454-150.588 0.167v100.894c0 27.942-22.421 50.363-50.363 50.363h-555.001c-27.942 0-50.363-22.421-50.363-50.363h-176.523c-13.888 0-25.265-11.378-25.265-25.265s11.378-25.265 25.265-25.265h176.523v-100.894h-126.159c-13.888 0-25.265-11.378-25.265-25.265s11.378-25.265 25.265-25.265h126.159v-100.559h-75.629c-13.888 0-25.265-11.378-25.265-25.265s11.378-25.265 25.265-25.265h75.629v-100.894h-25.265c-13.888 0-25.265-11.378-25.265-25.265s11.378-25.265 25.265-25.265h25.265c0-27.942 22.421-50.363 50.363-50.363h52.873c11.545-57.558 62.578-100.894 123.65-100.894s111.937 43.336 123.65 100.894h332.967c11.545-57.558 62.578-100.894 123.65-100.894s111.937 43.336 123.65 100.894h77.637l0.335 252.319zM454.275 145.318c-41.83 0-75.629 33.799-75.629 75.629s33.799 75.629 75.629 75.629 75.629-33.799 75.629-75.629c0.167-41.663-33.799-75.629-75.629-75.629zM832.586 246.212h-254.661c-11.545 57.558-62.578 100.894-123.65 100.894s-111.77-43.336-123.65-100.894h-52.873v504.471h554.834v-504.471zM1034.374 145.318c-41.83 0-75.629 33.799-75.629 75.629s33.799 75.629 75.629 75.629c41.83 0 75.629-33.799 75.629-75.629 0-41.663-33.799-75.629-75.629-75.629zM1185.129 246.212h-27.441c-11.545 57.558-62.578 100.894-123.65 100.894s-111.77-43.336-123.65-100.894h-27.441v353.046h129.841l172.842-172.005-0.502-181.041zM1034.374 246.212c-13.888 0-25.265-11.378-25.265-25.265s11.378-25.265 25.265-25.265 25.265 11.378 25.265 25.265-11.378 25.265-25.265 25.265z" />
<glyph unicode="&#xe901;" glyph-name="share" horiz-adv-x="961" d="M720.268 300.676c-37.326 0-72.836-15.195-98.106-38.483l-245.595 151.783c2.973 12.057 6.111 24.279 6.111 36.335 0 14.204-2.973 26.261-6.111 37.326l245.595 150.627c26.261-22.297 61.605-36.335 98.106-36.335 83.902 0 152.609 67.716 152.609 151.618 0 82.911-67.716 151.618-152.609 151.618-82.911 0-151.618-67.716-151.618-151.618 0-12.057 0.991-25.27 6.111-35.345l-245.595-152.609c-26.261 22.297-62.596 37.326-99.097 37.326-82.911 0-151.618-67.716-151.618-152.609 0-82.911 67.716-149.636 151.618-149.636 36.335 0 72.836 13.213 99.097 35.345l245.595-150.627c-5.12-11.066-6.111-23.288-6.111-36.335 0-82.911 67.716-151.618 151.618-151.618s152.609 67.716 152.609 151.618-67.716 151.618-152.609 151.618z" />
<glyph unicode="&#xe902;" glyph-name="bank" horiz-adv-x="1322" d="M343.771 472.033c0-106.057 86.988-193.045 193.045-193.045s193.045 86.988 193.045 193.045-86.988 193.045-193.045 193.045c-107.363 0-193.045-86.988-193.045-193.045zM633.992 514.351l-122.776-122.776-72.882 72.882 37.094 37.094 35.788-35.788 85.682 85.682 37.094-37.094zM28.996 245.551v452.963c0 48.588 39.706 88.294 88.294 88.294h839.053c48.588 0 88.294-39.706 88.294-88.294v-26.906h-58.776c-30.824 0-55.118-24.294-55.118-55.118v-14.106c-41.012 7.576-72.882 43.363-72.882 86.988 0 7.576 1.306 15.412 2.612 21.682h-652.278c1.306-5.224 1.306-10.188 1.306-16.718 0-48.588-39.706-89.6-89.6-89.6-5.224 0-10.188 0-15.412 1.306v-269.845c5.224 1.306 10.188 1.306 15.412 1.306 48.588 0 89.6-39.706 89.6-89.6 0-5.224 0-11.494-1.306-16.718h546.22v-66.351c0-2.612 0-6.269 1.306-8.882h-639.739c-48.588 1.567-86.988 41.012-86.988 89.6zM1109.682 200.882v-34.482c0-5.224-3.918-8.882-8.882-8.882h-116.506c-5.224 0-8.882 3.918-8.882 8.882v34.482c0 5.224 3.918 8.882 8.882 8.882h116.506c5.224 0 8.882-3.657 8.882-8.882zM1109.682 269.845v-34.482c0-5.224-3.918-8.882-8.882-8.882h-116.506c-5.224 0-8.882 3.918-8.882 8.882v34.482c0 5.224 3.918 8.882 8.882 8.882h116.506c5.224 0.261 8.882-3.657 8.882-8.882zM1109.682 339.069v-33.176c0-5.224-3.918-8.882-8.882-8.882h-116.506c-5.224 0-8.882 3.918-8.882 8.882v34.482c0 5.224 3.918 8.882 8.882 8.882h116.506c5.224-1.306 8.882-5.224 8.882-10.188zM1109.682 409.339v-34.482c0-5.224-3.918-8.882-8.882-8.882h-116.506c-5.224 0-8.882 3.918-8.882 8.882v34.482c0 5.224 3.918 8.882 8.882 8.882h116.506c5.224-1.306 8.882-4.963 8.882-8.882zM1109.682 478.302v-34.482c0-5.224-3.918-8.882-8.882-8.882h-116.506c-5.224 0-8.882 3.918-8.882 8.882v34.482c0 5.224 3.918 8.882 8.882 8.882h116.506c5.224-1.045 8.882-4.963 8.882-8.882zM1109.682 547.527v-34.482c0-5.224-3.918-8.882-8.882-8.882h-116.506c-5.224 0-8.882 3.918-8.882 8.882v34.482c0 5.224 3.918 8.882 8.882 8.882h116.506c5.224 0 8.882-3.918 8.882-8.882zM1109.682 616.49v-34.482c0-5.224-3.918-8.882-8.882-8.882h-116.506c-5.224 0-8.882 3.918-8.882 8.882v34.482c0 5.224 3.918 8.882 8.882 8.882h116.506c5.224 0.261 8.882-3.657 8.882-8.882zM1287.576 200.882v-34.482c0-5.224-3.918-8.882-8.882-8.882h-116.506c-5.224 0-8.882 3.918-8.882 8.882v34.482c0 5.224 3.918 8.882 8.882 8.882h116.506c4.963 0 8.882-3.657 8.882-8.882zM1287.576 269.845v-34.482c0-5.224-3.918-8.882-8.882-8.882h-116.506c-5.224 0-8.882 3.918-8.882 8.882v34.482c0 5.224 3.918 8.882 8.882 8.882h116.506c4.963 0.261 8.882-3.657 8.882-8.882zM1287.576 339.069v-33.176c0-5.224-3.918-8.882-8.882-8.882h-116.506c-5.224 0-8.882 3.918-8.882 8.882v34.482c0 5.224 3.918 8.882 8.882 8.882h116.506c4.963-1.306 8.882-5.224 8.882-10.188zM932.049 200.882v-34.482c0-5.224-3.918-8.882-8.882-8.882h-116.506c-5.224 0-8.882 3.918-8.882 8.882v34.482c0 5.224 3.918 8.882 8.882 8.882h116.506c4.963 0 8.882-3.657 8.882-8.882zM932.049 235.363c0-5.224-3.918-8.882-8.882-8.882h-116.506c-5.224 0-8.882 3.918-8.882 8.882v34.482c0 5.224 3.918 8.882 8.882 8.882h116.506c5.224 0 8.882-3.918 8.882-8.882v-34.482zM932.049 305.894c0-5.224-3.918-8.882-8.882-8.882h-116.506c-5.224 0-8.882 3.918-8.882 8.882v34.482c0 5.224 3.918 8.882 8.882 8.882h116.506c5.224 0 8.882-3.918 8.882-8.882v-34.482zM932.049 374.857c0-5.224-3.918-8.882-8.882-8.882h-116.506c-5.224 0-8.882 3.918-8.882 8.882v34.482c0 5.224 3.918 8.882 8.882 8.882h116.506c5.224 0 8.882-3.918 8.882-8.882v-34.482zM932.049 443.82c0-5.224-3.918-8.882-8.882-8.882h-116.506c-5.224 0-8.882 3.918-8.882 8.882v34.482c0 5.224 3.918 8.882 8.882 8.882h116.506c5.224 0 8.882-3.918 8.882-8.882v-34.482zM255.478 525.845c29.518 0 53.812-24.294 53.812-53.812s-24.294-53.812-53.812-53.812c-29.518 0-53.812 24.294-53.812 53.812s24.294 53.812 53.812 53.812z" />
<glyph unicode="&#xe90b;" glyph-name="help" horiz-adv-x="1033" d="M518.499-50.279c-273.693 0-496.835 223.142-496.835 496.835s223.142 496.835 496.835 496.835 496.835-223.142 496.835-496.835-223.142-496.835-496.835-496.835zM518.499 900.062c-249.862 0-453.506-203.645-453.506-453.506s203.645-453.506 453.506-453.506c249.862 0 453.506 203.645 453.506 453.506 0 250.584-203.645 453.506-453.506 453.506zM389.236 676.92c33.219 35.385 77.992 52.717 135.763 52.717 53.439 0 96.045-15.165 127.819-44.773 31.774-30.33 47.661-68.604 47.661-114.821 0-28.164-5.777-51.272-17.331-68.604s-35.385-43.329-71.492-77.269c-25.997-24.553-43.329-45.495-51.272-62.827s-11.554-42.606-11.554-75.825h-71.492c0 38.274 4.333 68.604 13.721 92.434 9.388 23.109 28.886 49.828 60.66 80.158l32.496 31.774c10.11 9.388 18.054 18.776 23.831 28.164 10.832 17.331 16.609 35.385 16.609 54.161 0 25.997-7.944 49.106-23.831 67.882-15.887 19.498-42.606 28.886-78.714 28.886-45.495 0-76.547-16.609-94.601-49.828-10.11-18.054-15.165-44.773-16.609-79.436h-71.492c0 56.327 16.609 102.544 49.828 137.207zM475.893 217.636h79.436v-83.047h-79.436v83.047z" />
<glyph unicode="&#xe90f;" glyph-name="credit-card" horiz-adv-x="1301" d="M1249.663 179.12c0 4.684 1.277 8.303 1.277 13.199v69.189c0 59.609-48.965 108.574-108.574 108.574h-40.662c-59.609 0-108.574-48.965-108.574-108.574v-69.189c0-4.684 0-8.303 1.277-13.199-22.779-4.684-39.385-25.121-39.385-48.965v-132.417c0-27.463 22.779-50.029 50.029-50.029h233.966c27.463 0 50.029 22.779 50.029 50.029v132.417c0 22.779-16.818 43.004-39.385 48.965zM1138.535 58.625c-2.342-1.277-2.342-3.619-2.342-5.961 0-11.922 0-23.844 0-35.765v0c0-7.238-5.961-14.264-14.264-14.264s-14.264 5.961-14.264 14.264v0c0 11.922 0 23.844 0 35.765 0 2.342 0 3.619-2.342 5.961-10.644 8.303-14.264 21.502-8.303 33.424 4.684 11.922 17.883 17.883 29.805 15.541 13.199-2.342 22.779-13.199 22.779-27.463 0.852-8.303-3.832-16.605-11.070-21.502zM1195.802 192.319c0-3.619 0-8.303-1.277-11.922h-144.339c-1.277 3.619-1.277 8.303-1.277 11.922v69.189c0 29.805 23.844 53.648 53.648 53.648h40.662c29.805 0 53.648-23.844 53.648-53.648v-69.189h-1.064zM902.653 74.804h-805.362c-5.322 0-9.793 1.916-13.625 5.748s-5.748 8.303-5.748 13.625v369.577h1011.44v-65.783h77.705v435.36c0 26.824-9.58 49.603-28.527 68.763-18.947 18.947-41.939 28.527-68.763 28.527h-972.481c-26.824 0-49.603-9.58-68.763-28.527-18.947-18.947-28.527-41.939-28.527-68.763v-739.153c0-26.824 9.58-49.603 28.527-68.763 19.16-18.947 41.939-28.527 68.763-28.527h805.362v77.918zM77.705 833.331c0 5.322 1.916 9.793 5.748 13.625s8.516 5.748 13.625 5.748h972.481c5.322 0 9.793-1.916 13.625-5.748s5.748-8.303 5.748-13.625v-136.249h-1011.227v136.249zM110.703 223.401h161.796v-64.506h-161.796v64.506zM302.304 223.401h229.921v-64.506h-229.921v64.506z" />
<glyph unicode="&#xe919;" glyph-name="cart" d="M385.463 287.086c-43.154 0-78.263-35.109-78.263-78.263s35.109-78.263 78.263-78.263c43.154 0 78.263 35.109 78.263 78.263 0.731 43.154-34.377 78.263-78.263 78.263zM789.211 287.086c-43.154 0-78.263-35.109-78.263-78.263s35.109-78.263 78.263-78.263c43.154 0 78.263 35.109 78.263 78.263 0.731 43.154-34.377 78.263-78.263 78.263zM332.069 325.12c-16.091 0-30.72 9.509-37.303 24.137l-108.251 245.029-62.903 80.457h-54.857c-22.674 0-40.96 18.286-40.96 40.96s18.286 40.96 40.96 40.96h74.606c12.434 0 24.137-5.851 32.183-15.36l78.263-100.206c2.194-2.926 3.657-5.851 5.12-8.777l98.743-223.817 439.589 16.823 52.663 158.72-31.451-1.463c-22.674-0.731-41.691 16.823-42.423 39.497s16.823 41.691 39.497 42.423l90.697 3.657c13.166 0.731 26.331-5.851 34.377-16.091 8.046-10.971 10.24-24.869 5.851-37.303l-79.726-242.103c-5.12-16.091-20.48-27.794-37.303-27.794l-495.909-19.017c-0.731-0.731-0.731-0.731-1.463-0.731z" />
<glyph unicode="&#xe91a;" glyph-name="ver" horiz-adv-x="1025" d="M512.67 576.168c-13.068 0-25.466-2.513-37.361-6.199 21.948-10.22 37.361-32.168 37.361-57.969 0-35.351-28.649-64.168-64.168-64.168-25.801 0-47.749 15.414-57.969 37.361-3.686-11.895-6.199-24.293-6.199-37.361 0-70.702 57.466-128.168 128.168-128.168s128.168 57.466 128.168 128.168-57.298 128.335-128 128.335zM512.67 768.503c-320.335 0-512.67-320.503-512.67-320.503s192.335-320.503 512.67-320.503 512.67 320.503 512.67 320.503-192.168 320.503-512.67 320.503zM512.67 255.832c-106.22 0-192.335 86.115-192.335 192.335s86.115 192.168 192.335 192.168c106.052 0 192.335-86.115 192.335-192.335s-86.283-192.168-192.335-192.168z" />
<glyph unicode="&#xe91b;" glyph-name="heart" horiz-adv-x="1127" d="M775.183 897.381c-105.899 0-172.754-51.568-211.614-98.164-38.86 46.596-105.715 98.164-211.614 98.164-180.305 0-301.306-167.045-301.306-323.039 0-227.085 436.305-531.522 486.032-565.41 8.104-5.525 17.496-8.288 27.073-8.288 9.393 0 18.97 2.763 27.073 8.288 49.727 33.888 486.032 338.325 486.032 565.41-0.368 155.994-121.37 323.039-301.675 323.039z" />
<glyph unicode="&#x1f313;" glyph-name="user" horiz-adv-x="1033" d="M523.554 437.89c-133.597 0-241.918 108.322-241.918 241.918s108.322 241.918 241.918 241.918 241.918-108.322 241.918-241.918-108.322-241.918-241.918-241.918zM523.554 884.897c-112.654 0-205.089-91.712-205.089-205.089s91.712-205.089 205.089-205.089 205.089 91.712 205.089 205.089-91.712 205.089-205.089 205.089zM989.337-9.117h-930.843v18.776c0 35.385 0 109.044 33.941 182.702 41.884 91.712 121.32 153.817 236.863 184.869l7.944 2.166 6.499-4.333c54.161-32.496 116.987-49.828 180.536-49.828s126.375 17.331 180.536 49.828l6.499 4.333 7.944-2.166c114.821-31.052 194.979-93.157 236.863-184.869 33.941-73.659 33.941-147.317 33.941-182.702v-18.776zM95.323 28.434h856.463c-0.722 36.107-5.055 93.157-30.33 148.762-36.107 79.436-105.433 134.319-205.089 162.482-58.494-33.219-124.931-50.55-192.812-50.55s-134.319 17.331-192.812 50.55c-99.656-28.886-168.982-83.047-205.089-162.482-25.275-56.327-29.608-112.654-30.33-148.762z" />
</font></defs></svg>